ID,Category
0,1
1,1
2,0
3,0
4,0
5,0
6,0
7,1
8,0
9,0
10,0
11,0
12,0
13,0
14,0
15,0
16,0
17,0
18,1
19,0
20,0
21,0
22,0
23,0
24,0
25,0
26,0
27,1
28,1
29,1
30,1
31,0
32,0
33,1
34,0
35,1
36,0
37,0
38,0
39,1
40,0
41,0
42,0
43,0
44,1
45,0
46,0
47,0
48,1
49,1
50,1
51,0
52,1
53,0
54,0
55,0
56,0
57,0
58,0
59,0
60,0
61,0
62,0
63,0
64,1
65,0
66,0
67,1
68,1
69,0
70,0
71,1
72,0
73,0
74,0
75,0
76,0
77,0
78,0
79,1
80,1
81,1
82,0
83,1
84,1
85,0
86,1
87,1
88,0
89,1
90,1
91,1
92,0
93,0
94,0
95,0
96,0
97,0
98,0
99,0
100,0
101,0
102,0
103,0
104,0
105,1
106,0
107,0
108,0
109,1
110,0
111,0
112,0
113,0
114,0
115,0
116,0
117,0
118,0
119,0
120,0
121,0
122,0
123,0
124,0
125,0
126,0
127,1
128,0
129,0
130,0
131,1
132,1
133,0
134,0
135,0
136,1
137,0
138,0
139,0
140,1
141,0
142,0
143,0
144,0
145,1
146,0
147,1
148,0
149,0
150,0
151,0
152,0
153,1
154,0
155,0
156,0
157,0
158,0
159,1
160,0
161,1
162,1
163,0
164,0
165,0
166,0
167,0
168,0
169,0
170,1
171,0
172,0
173,0
174,0
175,1
176,0
177,0
178,0
179,0
180,0
181,0
182,0
183,0
184,0
185,0
186,0
187,0
188,0
189,0
190,0
191,0
192,0
193,0
194,0
195,0
196,1
197,1
198,0
199,0
200,0
201,0
202,0
203,0
204,0
205,0
206,1
207,0
208,0
209,0
210,0
211,0
212,0
213,0
214,0
215,0
216,0
217,0
218,0
219,1
220,0
221,0
222,0
223,0
224,0
225,0
226,0
227,1
228,1
229,0
230,0
231,1
232,0
233,1
234,1
235,0
236,0
237,0
238,0
239,0
240,0
241,0
242,0
243,1
244,0
245,1
246,0
247,1
248,0
249,0
250,1
251,1
252,1
253,0
254,0
255,0
256,0
257,0
258,0
259,0
260,1
261,1
262,1
263,0
264,0
265,1
266,0
267,1
268,0
269,0
270,0
271,0
272,0
273,0
274,1
275,1
276,0
277,0
278,0
279,0
280,0
281,0
282,1
283,1
284,0
285,1
286,1
287,0
288,0
289,0
290,0
291,0
292,1
293,0
294,1
295,1
296,0
297,0
298,0
299,0
300,0
301,0
302,0
303,1
304,0
305,0
306,0
307,1
308,0
309,0
310,0
311,0
312,0
313,1
314,1
315,0
316,0
317,1
318,0
319,0
320,0
321,0
322,1
323,1
324,0
325,0
326,0
327,0
328,0
329,1
330,1
331,0
332,0
333,0
334,0
335,0
336,0
337,0
338,0
339,0
340,0
341,0
342,0
343,0
344,1
345,0
346,0
347,0
348,0
349,0
350,0
351,1
352,0
353,0
354,0
355,0
356,1
357,0
358,0
359,0
360,0
361,1
362,0
363,0
364,1
365,1
366,1
367,0
368,1
369,0
370,0
371,1
372,0
373,1
374,0
375,1
376,1
377,1
378,1
379,0
380,0
381,0
382,0
383,0
384,0
385,0
386,0
387,0
388,0
389,0
390,0
391,1
392,0
393,0
394,1
395,0
396,0
397,0
398,0
399,0
400,0
401,0
402,0
403,0
404,0
405,1
406,0
407,0
408,0
409,1
410,0
411,1
412,0
413,1
414,1
415,1
416,0
417,1
418,0
419,1
420,0
421,0
422,0
423,0
424,0
425,0
426,1
427,0
428,0
429,1
430,0
431,0
432,0
433,1
434,0
435,0
436,0
437,1
438,0
439,0
440,0
441,0
442,0
443,0
444,0
445,0
446,0
447,0
448,0
449,0
450,0
451,0
452,0
453,1
454,0
455,1
456,0
457,0
458,0
459,1
460,0
461,0
462,0
463,0
464,0
465,0
466,0
467,0
468,0
469,1
470,0
471,0
472,0
473,0
474,0
475,0
476,0
477,0
478,0
479,0
480,0
481,0
482,1
483,0
484,0
485,0
486,0
487,1
488,0
489,1
490,0
491,1
492,0
493,0
494,0
495,0
496,1
497,0
498,0
499,0
500,0
501,0
502,0
503,1
504,0
505,0
506,1
507,0
508,0
509,0
510,0
511,0
512,1
513,0
514,1
515,1
516,0
517,0
518,1
519,0
520,0
521,0
522,0
523,0
524,1
525,0
526,0
527,0
528,0
529,0
530,0
531,0
532,0
533,0
534,0
535,0
536,0
537,0
538,1
539,0
540,0
541,1
542,0
543,0
544,0
545,0
546,0
547,0
548,0
549,0
550,0
551,0
552,1
553,0
554,1
555,1
556,0
557,0
558,0
559,0
560,0
561,0
562,0
563,1
564,0
565,0
566,0
567,0
568,0
569,0
570,0
571,0
572,0
573,0
574,0
575,0
576,0
577,1
578,0
579,1
580,0
581,0
582,1
583,0
584,0
585,0
586,0
587,0
588,0
589,0
590,0
591,1
592,0
593,0
594,0
595,1
596,0
597,0
598,0
599,0
600,0
601,1
602,0
603,0
604,0
605,0
606,0
607,1
608,1
609,0
610,0
611,0
612,0
613,0
614,0
615,0
616,0
617,1
618,0
619,0
620,1
621,1
622,0
623,0
624,0
625,0
626,0
627,1
628,1
629,1
630,0
631,0
632,0
633,1
634,0
635,0
636,0
637,0
638,1
639,0
640,1
641,0
642,0
643,0
644,1
645,0
646,0
647,0
648,0
649,1
650,0
651,1
652,0
653,1
654,0
655,1
656,0
657,0
658,1
659,1
660,0
661,0
662,0
663,0
664,0
665,1
666,0
667,1
668,1
669,1
670,0
671,0
672,0
673,0
674,0
675,0
676,1
677,1
678,0
679,0
680,0
681,0
682,1
683,0
684,0
685,0
686,0
687,1
688,0
689,1
690,1
691,0
692,0
693,0
694,0
695,0
696,0
697,0
698,1
699,1
700,0
701,1
702,0
703,0
704,0
705,0
706,0
707,0
708,0
709,0
710,0
711,0
712,0
713,0
714,0
715,0
716,0
717,0
718,0
719,0
720,0
721,0
722,0
723,0
724,0
725,0
726,0
727,0
728,1
729,0
730,0
731,0
732,0
733,0
734,0
735,0
736,0
737,0
738,1
739,0
740,0
741,1
742,0
743,0
744,0
745,0
746,0
747,1
748,0
749,0
750,0
751,0
752,0
753,0
754,1
755,0
756,0
757,0
758,0
759,0
760,0
761,1
762,1
763,0
764,0
765,0
766,0
767,0
768,1
769,0
770,0
771,0
772,0
773,0
774,1
775,0
776,0
777,0
778,1
779,0
780,0
781,0
782,0
783,0
784,0
785,0
786,0
787,1
788,1
789,1
790,0
791,0
792,0
793,0
794,0
795,0
796,0
797,0
798,1
799,0
800,0
801,0
802,0
803,0
804,0
805,0
806,0
807,0
808,0
809,0
810,0
811,0
812,0
813,0
814,0
815,0
816,0
817,0
818,0
819,0
820,0
821,1
822,1
823,0
824,0
825,0
826,0
827,1
828,0
829,0
830,1
831,1
832,0
833,0
834,0
835,0
836,1
837,0
838,0
839,1
840,1
841,0
842,0
843,0
844,0
845,0
846,0
847,0
848,1
849,0
850,1
851,0
852,0
853,0
854,0
855,0
856,0
857,0
858,0
859,1
860,0
861,0
862,0
863,0
864,0
865,1
866,0
867,0
868,0
869,0
870,0
871,1
872,0
873,0
874,0
875,0
876,0
877,0
878,0
879,0
880,0
881,0
882,0
883,0
884,0
885,0
886,0
887,0
888,1
889,0
890,0
891,0
892,0
893,0
894,0
895,1
896,0
897,0
898,0
899,0
900,1
901,1
902,0
903,1
904,0
905,0
906,0
907,0
908,0
909,0
910,0
911,0
912,0
913,0
914,0
915,1
916,0
917,0
918,0
919,0
920,1
921,0
922,0
923,0
924,0
925,1
926,0
927,0
928,0
929,0
930,0
931,0
932,0
933,0
934,0
935,0
936,0
937,0
938,0
939,1
940,1
941,0
942,0
943,0
944,0
945,0
946,1
947,0
948,1
949,0
950,0
951,1
952,0
953,0
954,0
955,0
956,0
957,0
958,1
959,0
960,1
961,0
962,0
963,0
964,1
965,0
966,0
967,0
968,0
969,0
970,0
971,0
972,0
973,0
974,1
975,0
976,0
977,1
978,1
979,0
980,1
981,0
982,0
983,0
984,0
985,0
986,1
987,0
988,1
989,1
990,0
991,0
992,0
993,0
994,0
995,1
996,0
997,0
998,0
999,1
1000,0
1001,0
1002,1
1003,0
1004,0
1005,0
1006,0
1007,1
1008,0
1009,0
1010,1
1011,0
1012,0
1013,0
1014,0
1015,0
1016,0
1017,0
1018,0
1019,1
1020,0
1021,0
1022,0
1023,1
1024,0
1025,0
1026,1
1027,0
1028,1
1029,0
1030,0
1031,0
1032,0
1033,0
1034,0
1035,0
1036,1
1037,0
1038,0
1039,0
1040,0
1041,0
1042,0
1043,0
1044,0
1045,0
1046,0
1047,0
1048,0
1049,1
1050,0
1051,1
1052,0
1053,0
1054,0
1055,0
1056,0
1057,0
1058,0
1059,0
1060,1
1061,0
1062,0
1063,0
1064,0
1065,0
1066,0
1067,0
1068,0
1069,0
1070,0
1071,0
1072,0
1073,0
1074,0
1075,0
1076,0
1077,1
1078,0
1079,0
1080,0
1081,1
1082,1
1083,0
1084,1
1085,0
1086,0
1087,1
1088,0
1089,0
1090,0
1091,1
1092,0
1093,1
1094,0
1095,1
1096,0
1097,0
1098,0
1099,0
1100,0
1101,0
1102,0
1103,0
1104,0
1105,0
1106,0
1107,0
1108,0
1109,0
1110,1
1111,1
1112,0
1113,0
1114,0
1115,1
1116,0
1117,0
1118,0
1119,0
1120,0
1121,0
1122,0
1123,0
1124,0
1125,0
1126,1
1127,1
1128,0
1129,0
1130,0
1131,0
1132,1
1133,1
1134,0
1135,1
1136,0
1137,1
1138,0
1139,0
1140,0
1141,0
1142,0
1143,0
1144,1
1145,0
1146,1
1147,0
1148,0
1149,1
1150,0
1151,0
1152,1
1153,1
1154,0
1155,0
1156,1
1157,0
1158,1
1159,0
1160,0
1161,0
1162,0
1163,0
1164,1
1165,0
1166,1
1167,1
1168,0
1169,0
1170,0
1171,1
1172,1
1173,0
1174,1
1175,0
1176,1
1177,0
1178,0
1179,0
1180,1
1181,0
1182,0
1183,0
1184,0
1185,1
1186,0
1187,0
1188,0
1189,0
1190,1
1191,1
1192,0
1193,0
1194,0
1195,1
1196,0
1197,1
1198,0
1199,0
1200,1
1201,0
1202,0
1203,0
1204,0
1205,0
1206,0
1207,0
1208,0
1209,0
1210,0
1211,0
1212,0
1213,1
1214,0
1215,0
1216,0
1217,0
1218,1
1219,0
1220,0
1221,1
1222,0
1223,0
1224,0
1225,0
1226,1
1227,0
1228,0
1229,0
1230,0
1231,0
1232,1
1233,0
1234,0
1235,1
1236,0
1237,0
1238,0
1239,0
1240,0
1241,0
1242,0
1243,0
1244,0
1245,1
1246,1
1247,1
1248,1
1249,0
1250,0
1251,0
1252,0
1253,0
1254,0
1255,0
1256,0
1257,0
1258,1
1259,1
1260,0
1261,0
1262,0
1263,0
1264,1
1265,0
1266,1
1267,0
1268,0
1269,0
1270,0
1271,0
1272,0
1273,0
1274,0
1275,0
1276,1
1277,1
1278,0
1279,0
1280,0
1281,0
1282,0
1283,0
1284,0
1285,0
1286,1
1287,0
1288,0
1289,0
1290,1
1291,1
1292,0
1293,0
1294,1
1295,0
1296,0
1297,0
1298,0
1299,0
1300,0
1301,0
1302,0
1303,0
1304,0
1305,1
1306,0
1307,0
1308,1
1309,0
1310,0
1311,1
1312,0
1313,0
1314,0
1315,0
1316,1
1317,0
1318,0
1319,0
1320,0
1321,0
1322,1
1323,0
1324,0
1325,0
1326,0
1327,1
1328,0
1329,0
1330,0
1331,0
1332,0
1333,0
1334,0
1335,0
1336,0
1337,1
1338,0
1339,0
1340,0
1341,0
1342,0
1343,0
1344,0
1345,0
1346,0
1347,1
1348,0
1349,1
1350,0
1351,0
1352,0
1353,0
1354,0
1355,0
1356,1
1357,0
1358,1
1359,0
1360,0
1361,0
1362,1
1363,0
1364,0
1365,0
1366,0
1367,0
1368,0
1369,0
1370,1
1371,0
1372,0
1373,0
1374,1
1375,0
1376,1
1377,0
1378,1
1379,0
1380,1
1381,0
1382,0
1383,0
1384,1
1385,0
1386,0
1387,0
1388,0
1389,0
1390,0
1391,0
1392,0
1393,1
1394,0
1395,0
1396,0
1397,0
1398,1
1399,0
1400,0
1401,0
1402,1
1403,0
1404,1
1405,0
1406,0
1407,0
1408,0
1409,1
1410,0
1411,0
1412,0
1413,0
1414,0
1415,0
1416,0
1417,0
1418,1
1419,0
1420,1
1421,0
1422,0
1423,1
1424,1
1425,0
1426,0
1427,1
1428,0
1429,0
1430,0
1431,0
1432,0
1433,1
1434,0
1435,1
1436,0
1437,0
1438,0
1439,0
1440,0
1441,1
1442,0
1443,0
1444,0
1445,0
1446,0
1447,0
1448,0
1449,1
1450,0
1451,0
1452,0
1453,0
1454,0
1455,0
1456,0
1457,0
1458,0
1459,0
1460,0
1461,0
1462,1
1463,1
1464,0
1465,0
1466,1
1467,0
1468,1
1469,0
1470,0
1471,0
1472,1
1473,1
1474,1
1475,0
1476,0
1477,0
1478,0
1479,1
1480,0
1481,0
1482,0
1483,0
1484,0
1485,1
1486,0
1487,0
1488,0
1489,0
1490,0
1491,0
1492,0
1493,0
1494,0
1495,0
1496,0
1497,1
1498,1
1499,0
1500,0
1501,0
1502,1
1503,0
1504,0
1505,0
1506,0
1507,0
1508,0
1509,0
1510,0
1511,1
1512,0
1513,0
1514,1
1515,0
1516,0
1517,0
1518,0
1519,1
1520,0
1521,0
1522,0
1523,1
1524,0
1525,0
1526,0
1527,0
1528,0
1529,0
1530,0
1531,0
1532,1
1533,0
1534,0
1535,0
1536,0
1537,0
1538,1
1539,0
1540,1
1541,0
1542,0
1543,0
1544,0
1545,1
1546,0
1547,0
1548,0
1549,0
1550,0
1551,0
1552,0
1553,0
1554,0
1555,0
1556,0
1557,0
1558,0
1559,0
1560,1
1561,0
1562,1
1563,1
1564,0
1565,0
1566,1
1567,0
1568,0
1569,0
1570,0
1571,0
1572,0
1573,0
1574,0
1575,0
1576,0
1577,0
1578,0
1579,0
1580,0
1581,0
1582,0
1583,0
1584,1
1585,0
1586,0
1587,0
1588,0
1589,1
1590,0
1591,0
1592,0
1593,1
1594,0
1595,1
1596,0
1597,0
1598,0
1599,0
1600,0
1601,1
1602,1
1603,0
1604,0
1605,0
1606,0
1607,0
1608,0
1609,1
1610,0
1611,1
1612,0
1613,0
1614,0
1615,0
1616,1
1617,0
1618,0
1619,1
1620,1
1621,0
1622,1
1623,0
1624,0
1625,0
1626,0
1627,0
1628,0
1629,1
1630,1
1631,0
1632,1
1633,1
1634,0
1635,0
1636,0
1637,0
1638,0
1639,0
1640,0
1641,0
1642,0
1643,1
1644,0
1645,0
1646,1
1647,0
1648,0
1649,0
1650,0
1651,0
1652,1
1653,0
1654,1
1655,1
1656,0
1657,0
1658,0
1659,0
1660,0
1661,0
1662,0
1663,1
1664,0
1665,0
1666,0
1667,1
1668,1
1669,0
1670,1
1671,0
1672,0
1673,0
1674,1
1675,0
1676,0
1677,0
1678,0
1679,0
1680,1
1681,0
1682,0
1683,0
1684,0
1685,1
1686,0
1687,0
1688,1
1689,0
1690,0
1691,0
1692,0
1693,0
1694,0
1695,0
1696,0
1697,1
1698,1
1699,0
1700,1
1701,1
1702,0
1703,0
1704,0
1705,0
1706,0
1707,0
1708,0
1709,0
1710,0
1711,0
1712,1
1713,0
1714,0
1715,0
1716,0
1717,0
1718,0
1719,0
1720,0
1721,0
1722,0
1723,0
1724,1
1725,0
1726,0
1727,1
1728,0
1729,0
1730,0
1731,0
1732,0
1733,1
1734,0
1735,0
1736,0
1737,0
1738,1
1739,0
1740,0
1741,0
1742,0
1743,1
1744,0
1745,0
1746,0
1747,0
1748,0
1749,1
1750,0
1751,0
1752,1
1753,0
1754,0
1755,0
1756,1
1757,0
1758,0
1759,0
1760,0
1761,0
1762,0
1763,1
1764,1
1765,0
1766,0
1767,0
1768,1
1769,0
1770,1
1771,0
1772,0
1773,0
1774,0
1775,0
1776,1
1777,0
1778,1
1779,0
1780,1
1781,0
1782,1
1783,0
1784,0
1785,1
1786,0
1787,0
1788,0
1789,0
1790,0
1791,0
1792,1
1793,0
1794,0
1795,0
1796,0
1797,0
1798,0
1799,1
1800,0
1801,0
1802,0
1803,0
1804,1
1805,0
1806,0
1807,0
1808,1
1809,0
1810,0
1811,0
1812,1
1813,0
1814,0
1815,0
1816,0
1817,0
1818,1
1819,0
1820,0
1821,0
1822,0
1823,0
1824,0
1825,0
1826,0
1827,0
1828,1
1829,0
1830,0
1831,0
1832,1
1833,0
1834,0
1835,1
1836,0
1837,0
1838,0
1839,0
1840,1
1841,0
1842,0
1843,0
1844,1
1845,0
1846,1
1847,0
1848,0
1849,1
1850,0
1851,0
1852,0
1853,0
1854,0
1855,0
1856,0
1857,0
1858,1
1859,0
1860,0
1861,0
1862,1
1863,1
1864,1
1865,0
1866,1
1867,1
1868,1
1869,0
1870,0
1871,1
1872,1
1873,0
1874,1
1875,0
1876,1
1877,0
1878,0
1879,0
1880,1
1881,0
1882,1
1883,0
1884,0
1885,0
1886,0
1887,1
1888,0
1889,0
1890,0
1891,0
1892,1
1893,0
1894,1
1895,0
1896,0
1897,0
1898,0
1899,1
1900,0
1901,0
1902,0
1903,1
1904,1
1905,0
1906,0
1907,0
1908,0
1909,0
1910,0
1911,0
1912,0
1913,0
1914,1
1915,0
1916,0
1917,0
1918,1
1919,1
1920,0
1921,0
1922,0
1923,0
1924,0
1925,1
1926,0
1927,0
1928,0
1929,0
1930,1
1931,0
1932,0
1933,0
1934,0
1935,0
1936,0
1937,1
1938,0
1939,0
1940,0
1941,0
1942,0
1943,0
1944,0
1945,0
1946,0
1947,0
1948,0
1949,0
1950,1
1951,1
1952,0
1953,1
1954,0
1955,0
1956,0
1957,1
1958,1
1959,0
1960,0
1961,0
1962,1
1963,1
1964,1
1965,1
1966,0
1967,1
1968,0
1969,0
1970,1
1971,0
1972,0
1973,0
1974,0
1975,0
1976,1
1977,0
1978,0
1979,0
1980,0
1981,1
1982,0
1983,0
1984,0
1985,0
1986,0
1987,1
1988,1
1989,0
1990,0
1991,0
1992,0
1993,0
1994,0
1995,0
1996,0
1997,1
1998,0
1999,0
2000,0
2001,1
2002,1
2003,0
2004,0
2005,1
2006,0
2007,0
2008,0
2009,0
2010,0
2011,0
2012,0
2013,0
2014,0
2015,0
2016,1
2017,1
2018,1
2019,0
2020,0
2021,0
2022,0
2023,0
2024,1
2025,0
2026,0
2027,1
2028,0
2029,0
2030,0
2031,1
2032,0
2033,0
2034,0
2035,0
2036,0
2037,1
2038,0
2039,0
2040,0
2041,0
2042,0
2043,0
2044,0
2045,0
2046,0
2047,0
2048,0
2049,1
2050,0
2051,1
2052,0
2053,0
2054,0
2055,0
2056,0
2057,0
2058,0
2059,0
2060,0
2061,0
2062,1
2063,0
2064,0
2065,0
2066,1
2067,1
2068,0
2069,1
2070,0
2071,0
2072,1
2073,0
2074,1
2075,0
2076,0
2077,1
2078,0
2079,0
2080,0
2081,1
2082,0
2083,0
2084,0
2085,1
2086,1
2087,0
2088,1
2089,0
2090,0
2091,0
2092,0
2093,1
2094,1
2095,0
2096,0
2097,0
2098,0
2099,1
2100,1
2101,1
2102,0
2103,1
2104,0
2105,0
2106,1
2107,0
2108,0
2109,0
2110,1
2111,0
2112,0
2113,1
2114,0
2115,1
2116,0
2117,0
2118,0
2119,1
2120,0
2121,0
2122,0
2123,1
2124,0
2125,0
2126,0
2127,0
2128,1
2129,0
2130,0
2131,1
2132,0
2133,1
2134,0
2135,1
2136,0
2137,1
2138,0
2139,1
2140,0
2141,0
2142,0
2143,0
2144,0
2145,0
2146,1
2147,0
2148,0
2149,0
2150,1
2151,1
2152,1
2153,0
2154,1
2155,0
2156,0
2157,1
2158,0
2159,0
2160,0
2161,0
2162,0
2163,0
2164,1
2165,0
2166,0
2167,0
2168,1
2169,1
2170,1
2171,0
2172,1
2173,0
2174,0
2175,1
2176,0
2177,0
2178,0
2179,0
2180,0
2181,1
2182,0
2183,0
2184,0
2185,0
2186,0
2187,1
2188,0
2189,1
2190,0
2191,0
2192,0
2193,0
2194,0
2195,1
2196,1
2197,0
2198,0
2199,1
2200,0
2201,0
2202,0
2203,0
2204,1
2205,0
2206,1
2207,1
2208,1
2209,0
2210,1
2211,0
2212,1
2213,0
2214,0
2215,0
2216,0
2217,0
2218,0
2219,0
2220,0
2221,0
2222,0
2223,0
2224,0
2225,1
2226,1
2227,0
2228,1
2229,0
2230,1
2231,0
2232,0
2233,1
2234,0
2235,0
2236,1
2237,0
2238,0
2239,0
2240,0
2241,0
2242,0
2243,0
2244,0
2245,0
2246,0
2247,0
2248,0
2249,0
2250,0
2251,1
2252,0
2253,0
2254,0
2255,0
2256,0
2257,0
2258,0
2259,0
2260,0
2261,0
2262,0
2263,0
2264,0
2265,0
2266,0
2267,1
2268,1
2269,0
2270,0
2271,0
2272,0
2273,0
2274,1
2275,0
2276,0
2277,0
2278,0
2279,0
2280,1
2281,0
2282,0
2283,0
2284,1
2285,0
2286,1
2287,1
2288,0
2289,0
2290,1
2291,0
2292,0
2293,0
2294,0
2295,0
2296,0
2297,0
2298,0
2299,0
2300,0
2301,1
2302,0
2303,0
2304,0
2305,1
2306,0
2307,0
2308,0
2309,0
2310,1
2311,1
2312,0
2313,0
2314,0
2315,1
2316,1
2317,0
2318,0
2319,0
2320,0
2321,0
2322,0
2323,0
2324,1
2325,0
2326,0
2327,1
2328,0
2329,0
2330,1
2331,0
2332,0
2333,0
2334,0
2335,0
2336,0
2337,1
2338,0
2339,0
2340,0
2341,0
2342,0
2343,0
2344,0
2345,0
2346,0
2347,1
2348,1
2349,0
2350,0
2351,0
2352,0
2353,0
2354,0
2355,0
2356,0
2357,1
2358,0
2359,0
2360,0
2361,1
2362,1
2363,1
2364,1
2365,0
2366,0
2367,0
2368,1
2369,1
2370,1
2371,1
2372,0
2373,0
2374,0
2375,1
2376,0
2377,0
2378,1
2379,0
2380,0
2381,1
2382,1
2383,1
2384,1
2385,0
2386,0
2387,0
2388,0
2389,0
2390,1
2391,1
2392,0
2393,1
2394,0
2395,1
2396,0
2397,0
2398,0
2399,0
2400,1
2401,0
2402,1
2403,0
2404,0
2405,0
2406,0
2407,0
2408,0
2409,0
2410,0
2411,0
2412,0
2413,0
2414,0
2415,1
2416,0
2417,0
2418,0
2419,0
2420,0
2421,0
2422,0
2423,0
2424,0
2425,0
2426,0
2427,0
2428,0
2429,0
2430,0
2431,0
2432,0
2433,0
2434,0
2435,0
2436,0
2437,0
2438,0
2439,0
2440,1
2441,1
2442,0
2443,1
2444,0
2445,0
2446,0
2447,1
2448,0
2449,0
2450,1
2451,0
2452,0
2453,0
2454,0
2455,0
2456,0
2457,0
2458,1
2459,0
2460,1
2461,1
2462,0
2463,1
2464,0
2465,0
2466,0
2467,1
2468,0
2469,0
2470,1
2471,1
2472,0
2473,1
2474,0
2475,0
2476,0
2477,0
2478,1
2479,0
2480,1
2481,1
2482,0
2483,0
2484,0
2485,0
2486,0
2487,0
2488,1
2489,0
2490,1
2491,0
2492,0
2493,0
2494,0
2495,1
2496,1
2497,0
2498,0
2499,0
2500,0
2501,1
2502,0
2503,0
2504,1
2505,0
2506,1
2507,0
2508,0
2509,0
2510,1
2511,1
2512,0
2513,0
2514,0
2515,0
2516,0
2517,0
2518,0
2519,0
2520,0
2521,1
2522,0
2523,0
2524,0
2525,0
2526,1
2527,0
2528,0
2529,0
2530,1
2531,0
2532,0
2533,0
2534,0
2535,0
2536,0
2537,1
2538,0
2539,1
2540,1
2541,1
2542,0
2543,0
2544,0
2545,0
2546,1
2547,1
2548,0
2549,0
2550,0
2551,1
2552,0
2553,0
2554,0
2555,0
2556,0
2557,1
2558,1
2559,0
2560,0
2561,0
2562,0
2563,1
2564,1
2565,0
2566,1
2567,0
2568,0
2569,0
2570,0
2571,0
2572,0
2573,1
2574,0
2575,1
2576,0
2577,0
2578,1
2579,1
2580,0
2581,0
2582,1
2583,0
2584,0
2585,0
2586,0
2587,0
2588,0
2589,0
2590,1
2591,0
2592,1
2593,0
2594,1
2595,0
2596,0
2597,0
2598,1
2599,0
2600,0
2601,0
2602,0
2603,0
2604,0
2605,0
2606,0
2607,1
2608,0
2609,1
2610,1
2611,1
2612,0
2613,0
2614,1
2615,0
2616,0
2617,0
2618,0
2619,1
2620,0
2621,0
2622,0
2623,0
2624,0
2625,0
2626,0
2627,0
2628,0
2629,0
2630,0
2631,0
2632,0
2633,0
2634,0
2635,1
2636,0
2637,0
2638,0
2639,0
2640,1
2641,0
2642,0
2643,1
2644,0
2645,0
2646,0
2647,0
2648,0
2649,1
2650,0
2651,0
2652,0
2653,0
2654,0
2655,0
2656,0
2657,1
2658,0
2659,0
2660,0
2661,0
2662,1
2663,0
2664,0
2665,1
2666,0
2667,0
2668,0
2669,0
2670,0
2671,0
2672,1
2673,1
2674,0
2675,0
2676,0
2677,1
2678,0
2679,0
2680,0
2681,0
2682,0
2683,0
2684,1
2685,0
2686,0
2687,0
2688,0
2689,0
2690,1
2691,0
2692,1
2693,0
2694,0
2695,0
2696,0
2697,1
2698,0
2699,1
2700,0
2701,0
2702,0
2703,0
2704,1
2705,1
2706,1
2707,0
2708,0
2709,0
2710,0
2711,0
2712,0
2713,1
2714,0
2715,0
2716,0
2717,0
2718,1
2719,1
2720,0
2721,0
2722,0
2723,1
2724,0
2725,0
2726,1
2727,0
2728,0
2729,0
2730,0
2731,1
2732,0
2733,0
2734,0
2735,0
2736,1
2737,0
2738,0
2739,0
2740,1
2741,1
2742,0
2743,0
2744,1
2745,0
2746,0
2747,0
2748,0
2749,0
2750,0
2751,0
2752,0
2753,0
2754,1
2755,0
2756,0
2757,0
2758,0
2759,0
2760,1
2761,0
2762,0
2763,0
2764,0
2765,1
2766,0
2767,0
2768,0
2769,1
2770,0
2771,0
2772,0
2773,0
2774,0
2775,0
2776,0
2777,0
2778,0
2779,0
2780,0
2781,0
2782,1
2783,0
2784,0
2785,0
2786,0
2787,0
2788,0
2789,0
2790,0
2791,1
2792,0
2793,0
2794,0
2795,0
2796,0
2797,0
2798,1
2799,0
2800,0
2801,0
2802,0
2803,1
2804,0
2805,0
2806,0
2807,0
2808,0
2809,0
2810,0
2811,0
2812,0
2813,0
2814,0
2815,0
2816,0
2817,0
2818,0
2819,0
2820,0
2821,1
2822,0
2823,0
2824,0
2825,0
2826,0
2827,1
2828,0
2829,0
2830,1
2831,1
2832,0
2833,0
2834,0
2835,0
2836,0
2837,0
2838,0
2839,0
2840,1
2841,0
2842,0
2843,0
2844,0
2845,0
2846,1
2847,0
2848,1
2849,0
2850,1
2851,0
2852,1
2853,1
2854,0
2855,0
2856,0
2857,1
2858,0
2859,0
2860,0
2861,0
2862,0
2863,0
2864,0
2865,0
2866,0
2867,0
2868,0
2869,0
2870,0
2871,0
2872,0
2873,0
2874,0
2875,0
2876,0
2877,0
2878,0
2879,0
2880,0
2881,0
2882,0
2883,1
2884,0
2885,1
2886,0
2887,0
2888,0
2889,0
2890,1
2891,1
2892,0
2893,0
2894,1
2895,0
2896,0
2897,1
2898,0
2899,0
2900,0
2901,0
2902,0
2903,0
2904,1
2905,0
2906,0
2907,0
2908,1
2909,0
2910,0
2911,0
2912,0
2913,0
2914,0
2915,0
2916,0
2917,0
2918,1
2919,1
2920,0
2921,1
2922,0
2923,0
2924,0
2925,0
2926,0
2927,0
2928,0
2929,0
2930,0
2931,0
2932,0
2933,0
2934,0
2935,0
2936,0
2937,0
2938,0
2939,1
2940,1
2941,0
2942,1
2943,0
2944,0
2945,0
2946,0
2947,0
2948,0
2949,0
2950,0
2951,0
2952,0
2953,0
2954,1
2955,1
2956,0
2957,0
2958,0
2959,0
2960,0
2961,1
2962,0
2963,1
2964,0
2965,0
2966,0
2967,0
2968,0
2969,0
2970,1
2971,1
2972,1
2973,0
2974,0
2975,1
2976,0
2977,1
2978,0
2979,1
2980,0
2981,0
2982,0
2983,0
2984,0
2985,0
2986,0
2987,0
2988,1
2989,0
2990,0
2991,0
2992,0
2993,1
2994,0
2995,1
2996,0
2997,1
2998,0
2999,0
3000,0
3001,1
3002,0
3003,0
3004,1
3005,1
3006,0
3007,0
3008,0
3009,0
3010,1
3011,0
3012,0
3013,0
3014,0
3015,0
3016,0
3017,0
3018,1
3019,1
3020,0
3021,1
3022,1
3023,0
3024,0
3025,0
3026,0
3027,1
3028,0
3029,0
3030,1
3031,0
3032,0
3033,1
3034,0
3035,0
3036,1
3037,1
3038,0
3039,1
3040,0
3041,0
3042,0
3043,1
3044,0
3045,0
3046,0
3047,0
3048,0
3049,1
3050,0
3051,0
3052,0
3053,0
3054,1
3055,0
3056,0
3057,0
3058,0
3059,0
3060,1
3061,0
3062,1
3063,0
3064,0
3065,0
3066,1
3067,0
3068,1
3069,1
3070,0
3071,0
3072,0
3073,0
3074,0
3075,0
3076,0
3077,1
3078,0
3079,0
3080,0
3081,1
3082,0
3083,1
3084,1
3085,0
3086,0
3087,0
3088,0
3089,0
3090,0
3091,0
3092,0
3093,0
3094,0
3095,1
3096,0
3097,1
3098,0
3099,0
3100,0
3101,1
3102,1
3103,0
3104,0
3105,0
3106,1
3107,0
3108,0
3109,0
3110,0
3111,0
3112,0
3113,0
3114,0
3115,0
3116,1
3117,1
3118,0
3119,0
3120,0
3121,1
3122,0
3123,0
3124,1
3125,0
3126,0
3127,0
3128,0
3129,0
3130,1
3131,0
3132,0
3133,1
3134,0
3135,0
3136,0
3137,1
3138,0
3139,0
3140,0
3141,0
3142,0
3143,0
3144,1
3145,0
3146,1
3147,0
3148,0
3149,0
3150,0
3151,0
3152,0
3153,0
3154,0
3155,0
3156,1
3157,1
3158,1
3159,0
3160,0
3161,0
3162,0
3163,1
3164,0
3165,0
3166,0
3167,0
3168,0
3169,1
3170,0
3171,0
3172,0
3173,0
3174,0
3175,0
3176,1
3177,0
3178,0
3179,0
3180,0
3181,1
3182,1
3183,0
3184,0
3185,1
3186,1
3187,0
3188,0
3189,0
3190,1
3191,0
3192,0
3193,0
3194,0
3195,0
3196,0
3197,0
3198,0
3199,0
3200,0
3201,0
3202,0
3203,0
3204,0
3205,0
3206,0
3207,0
3208,0
3209,0
3210,0
3211,0
3212,0
3213,0
3214,1
3215,0
3216,0
3217,0
3218,1
3219,0
3220,0
3221,0
3222,0
3223,0
3224,1
3225,0
3226,0
3227,0
3228,1
3229,1
3230,1
3231,0
3232,1
3233,0
3234,0
3235,0
3236,0
3237,0
3238,1
3239,1
3240,0
3241,0
3242,0
3243,0
3244,0
3245,0
3246,0
3247,1
3248,0
3249,0
3250,0
3251,0
3252,1
3253,0
3254,0
3255,0
3256,0
3257,0
3258,0
3259,0
3260,1
3261,0
3262,0
3263,0
3264,0
3265,0
3266,0
3267,1
3268,0
3269,1
3270,0
3271,0
3272,0
3273,1
3274,0
3275,0
3276,0
3277,0
3278,0
3279,1
3280,0
3281,0
3282,0
3283,1
3284,0
3285,0
3286,0
3287,0
3288,1
3289,1
3290,0
3291,0
3292,0
3293,0
3294,1
3295,0
3296,0
3297,0
3298,0
3299,0
3300,0
3301,0
3302,1
3303,0
3304,0
3305,0
3306,0
3307,0
3308,0
3309,0
3310,1
3311,0
3312,0
3313,0
3314,1
3315,0
3316,0
3317,0
3318,1
3319,0
3320,0
3321,1
3322,0
3323,0
3324,0
3325,0
3326,1
3327,1
3328,1
3329,0
3330,0
3331,0
3332,0
3333,1
3334,1
3335,0
3336,0
3337,1
3338,0
3339,0
3340,0
3341,0
3342,0
3343,0
3344,0
3345,0
3346,0
3347,0
3348,1
3349,0
3350,0
3351,1
3352,0
3353,1
3354,0
3355,1
3356,0
3357,0
3358,0
3359,0
3360,1
3361,0
3362,1
3363,1
3364,0
3365,0
3366,0
3367,0
3368,1
3369,0
3370,0
3371,0
3372,0
3373,1
3374,0
3375,0
3376,0
3377,0
3378,0
3379,0
3380,0
3381,0
3382,0
3383,0
3384,1
3385,0
3386,0
3387,0
3388,0
3389,1
3390,0
3391,0
3392,0
3393,0
3394,1
3395,0
3396,1
3397,1
3398,0
3399,0
3400,0
3401,1
3402,0
3403,1
3404,0
3405,0
3406,0
3407,0
3408,0
3409,0
3410,0
3411,0
3412,1
3413,0
3414,0
3415,1
3416,0
3417,1
3418,0
3419,1
3420,0
3421,0
3422,0
3423,0
3424,0
3425,0
3426,0
3427,1
3428,0
3429,1
3430,1
3431,1
3432,0
3433,0
3434,1
3435,0
3436,0
3437,0
3438,0
3439,0
3440,1
3441,0
3442,0
3443,0
3444,0
3445,0
3446,1
3447,0
3448,1
3449,0
3450,1
3451,1
3452,1
3453,0
3454,0
3455,0
3456,0
3457,0
3458,0
3459,0
3460,0
3461,0
3462,0
3463,0
3464,0
3465,0
3466,1
3467,1
3468,1
3469,0
3470,0
3471,0
3472,0
3473,1
3474,1
3475,0
3476,1
3477,0
3478,0
3479,0
3480,0
3481,1
3482,0
3483,1
3484,0
3485,0
3486,1
3487,0
3488,0
3489,0
3490,1
3491,0
3492,0
3493,0
3494,0
3495,0
3496,0
3497,0
3498,1
3499,0
3500,0
3501,0
3502,0
3503,0
3504,0
3505,0
3506,0
3507,0
3508,1
3509,1
3510,0
3511,0
3512,1
3513,1
3514,0
3515,0
3516,0
3517,0
3518,1
3519,0
3520,0
3521,0
3522,0
3523,0
3524,1
3525,0
3526,0
3527,0
3528,0
3529,0
3530,1
3531,0
3532,0
3533,0
3534,0
3535,0
3536,0
3537,1
3538,0
3539,0
3540,1
3541,0
3542,0
3543,0
3544,0
3545,0
3546,0
3547,0
3548,0
3549,0
3550,0
3551,0
3552,0
3553,0
3554,0
3555,0
3556,1
3557,0
3558,0
3559,0
3560,1
3561,0
3562,0
3563,0
3564,1
3565,0
3566,1
3567,0
3568,0
3569,0
3570,1
3571,1
3572,0
3573,0
3574,0
3575,0
3576,0
3577,0
3578,0
3579,0
3580,0
3581,1
3582,0
3583,1
3584,0
3585,0
3586,0
3587,0
3588,0
3589,1
3590,0
3591,1
3592,0
3593,1
3594,0
3595,1
3596,1
3597,0
3598,0
3599,0
3600,0
3601,0
3602,1
3603,0
3604,0
3605,0
3606,1
3607,0
3608,0
3609,0
3610,0
3611,1
3612,0
3613,0
3614,1
3615,0
3616,0
3617,0
3618,0
3619,0
3620,1
3621,0
3622,0
3623,0
3624,0
3625,0
3626,0
3627,1
3628,0
3629,0
3630,0
3631,1
3632,0
3633,0
3634,0
3635,0
3636,0
3637,0
3638,0
3639,0
3640,1
3641,0
3642,0
3643,0
3644,0
3645,1
3646,1
3647,0
3648,0
3649,0
3650,0
3651,0
3652,0
3653,0
3654,1
3655,0
3656,0
3657,0
3658,1
3659,0
3660,0
3661,1
3662,0
3663,0
3664,0
3665,0
3666,0
3667,0
3668,1
3669,0
3670,1
3671,1
3672,0
3673,0
3674,0
3675,1
3676,0
3677,0
3678,1
3679,0
3680,0
3681,0
3682,0
3683,0
3684,0
3685,0
3686,0
3687,0
3688,0
3689,0
3690,0
3691,0
3692,0
3693,1
3694,0
3695,0
3696,1
3697,0
3698,0
3699,0
3700,0
3701,0
3702,0
3703,1
3704,0
3705,0
3706,0
3707,0
3708,0
3709,0
3710,0
3711,0
3712,0
3713,0
3714,1
3715,1
3716,0
3717,0
3718,0
3719,0
3720,0
3721,0
3722,0
3723,0
3724,0
3725,0
3726,0
3727,0
3728,1
3729,0
3730,0
3731,0
3732,0
3733,1
3734,1
3735,0
3736,0
3737,0
3738,1
3739,1
3740,0
3741,0
3742,0
3743,0
3744,1
3745,0
3746,0
3747,1
3748,0
3749,1
3750,1
3751,0
3752,0
3753,0
3754,0
3755,0
3756,0
3757,0
3758,0
3759,0
3760,0
3761,0
3762,0
3763,0
3764,1
3765,1
3766,1
3767,0
3768,1
3769,1
3770,0
3771,0
3772,0
3773,0
3774,0
3775,0
3776,1
3777,0
3778,0
3779,0
3780,0
3781,0
3782,0
3783,0
3784,0
3785,0
3786,1
3787,0
3788,0
3789,0
3790,1
3791,0
3792,0
3793,0
3794,0
3795,1
3796,0
3797,0
3798,0
3799,0
3800,0
3801,0
3802,0
3803,0
3804,0
3805,0
3806,0
3807,0
3808,0
3809,0
3810,0
3811,1
3812,1
3813,0
3814,0
3815,0
3816,0
3817,1
3818,0
3819,0
3820,1
3821,0
3822,0
3823,0
3824,0
3825,0
3826,0
3827,0
3828,1
3829,0
3830,0
3831,1
3832,0
3833,1
3834,0
3835,0
3836,0
3837,1
3838,0
3839,0
3840,0
3841,1
3842,1
3843,0
3844,0
3845,0
3846,1
3847,0
3848,0
3849,0
3850,0
3851,0
3852,0
3853,0
3854,1
3855,0
3856,1
3857,0
3858,0
3859,0
3860,0
3861,0
3862,0
3863,0
3864,0
3865,0
3866,0
3867,0
3868,0
3869,0
3870,0
3871,0
3872,0
3873,0
3874,0
3875,0
3876,0
3877,0
3878,0
3879,1
3880,0
3881,1
3882,0
3883,0
3884,1
3885,0
3886,0
3887,0
3888,1
3889,0
3890,0
3891,0
3892,1
3893,0
3894,0
3895,0
3896,0
3897,0
3898,0
3899,0
3900,0
3901,0
3902,1
3903,0
3904,1
3905,1
3906,1
3907,0
3908,0
3909,0
3910,1
3911,1
3912,0
3913,0
3914,0
3915,0
3916,0
3917,0
3918,0
3919,0
3920,0
3921,0
3922,0
3923,0
3924,0
3925,0
3926,1
3927,0
3928,0
3929,0
3930,0
3931,1
3932,1
3933,1
3934,0
3935,1
3936,0
3937,0
3938,0
3939,0
3940,1
3941,0
3942,0
3943,1
3944,0
3945,0
3946,0
3947,1
3948,0
3949,1
3950,0
3951,0
3952,0
3953,0
3954,1
3955,0
3956,0
3957,0
3958,1
3959,0
3960,0
3961,0
3962,0
3963,0
3964,0
3965,1
3966,0
3967,0
3968,0
3969,0
3970,1
3971,0
3972,1
3973,0
3974,1
3975,0
3976,0
3977,0
3978,0
3979,0
3980,0
3981,1
3982,0
3983,0
3984,0
3985,1
3986,0
3987,0
3988,0
3989,0
3990,0
3991,1
3992,0
3993,0
3994,0
3995,0
3996,0
3997,0
3998,0
3999,0
4000,1
4001,0
4002,0
4003,0
4004,0
4005,0
4006,1
4007,1
4008,0
4009,0
4010,0
4011,0
4012,0
4013,0
4014,0
4015,0
4016,1
4017,0
4018,1
4019,0
4020,1
4021,0
4022,0
4023,1
4024,0
4025,0
4026,1
4027,0
4028,0
4029,1
4030,0
4031,1
4032,0
4033,1
4034,0
4035,0
4036,0
4037,0
4038,1
4039,1
4040,0
4041,0
4042,0
4043,0
4044,0
4045,1
4046,0
4047,0
4048,0
4049,1
4050,1
4051,0
4052,0
4053,0
4054,0
4055,0
4056,0
4057,0
4058,0
4059,1
4060,0
4061,0
4062,0
4063,0
4064,0
4065,0
4066,1
4067,0
4068,0
4069,1
4070,0
4071,0
4072,0
4073,0
4074,0
4075,1
4076,0
4077,0
4078,0
4079,1
4080,1
4081,1
4082,0
4083,0
4084,0
4085,0
4086,0
4087,0
4088,0
4089,0
4090,0
4091,0
4092,0
4093,0
4094,0
4095,0
4096,0
4097,0
4098,0
4099,0
4100,0
4101,0
4102,0
4103,1
4104,0
4105,0
4106,0
4107,1
4108,0
4109,1
4110,0
4111,1
4112,0
4113,0
4114,0
4115,1
4116,1
4117,1
4118,0
4119,0
4120,0
4121,0
4122,0
4123,1
4124,0
4125,1
4126,0
4127,0
4128,0
4129,0
4130,0
4131,1
4132,0
4133,0
4134,0
4135,0
4136,0
4137,0
4138,0
4139,0
4140,0
4141,1
4142,0
4143,1
4144,0
4145,1
4146,0
4147,0
4148,0
4149,0
4150,0
4151,0
4152,0
4153,0
4154,0
4155,0
4156,0
4157,1
4158,1
4159,0
4160,0
4161,0
4162,0
4163,0
4164,1
4165,0
4166,0
4167,1
4168,0
4169,0
4170,0
4171,0
4172,1
4173,0
4174,0
4175,0
4176,0
4177,0
4178,0
4179,0
4180,0
4181,0
4182,1
4183,0
4184,0
4185,0
4186,0
4187,0
4188,1
4189,0
4190,0
4191,0
4192,0
4193,0
4194,0
4195,0
4196,0
4197,0
4198,0
4199,0
4200,0
4201,1
4202,0
4203,0
4204,1
4205,0
4206,1
4207,0
4208,1
4209,0
4210,0
4211,1
4212,0
4213,0
4214,0
4215,0
4216,0
4217,0
4218,0
4219,0
4220,1
4221,0
4222,0
4223,0
4224,0
4225,0
4226,1
4227,0
4228,0
4229,0
4230,0
4231,0
4232,0
4233,0
4234,1
4235,0
4236,0
4237,0
4238,1
4239,1
4240,0
4241,1
4242,1
4243,1
4244,0
4245,1
4246,0
4247,0
4248,0
4249,0
4250,0
4251,0
4252,0
4253,1
4254,1
4255,0
4256,0
4257,1
4258,0
4259,0
4260,0
4261,0
4262,1
4263,0
4264,1
4265,0
4266,1
4267,0
4268,0
4269,0
4270,0
4271,0
4272,0
4273,1
4274,0
4275,0
4276,0
4277,1
4278,0
4279,1
4280,1
4281,1
4282,0
4283,0
4284,1
4285,0
4286,0
4287,0
4288,1
4289,0
4290,0
4291,0
4292,0
4293,1
4294,0
4295,0
4296,0
4297,1
4298,0
4299,0
4300,1
4301,0
4302,0
4303,1
4304,0
4305,0
4306,1
4307,0
4308,0
4309,0
4310,0
4311,0
4312,0
4313,0
4314,0
4315,0
4316,0
4317,0
4318,1
4319,1
4320,1
4321,0
4322,0
4323,1
4324,0
4325,0
4326,0
4327,1
4328,1
4329,0
4330,0
4331,0
4332,0
4333,1
4334,1
4335,0
4336,0
4337,0
4338,0
4339,0
4340,0
4341,0
4342,0
4343,0
4344,0
4345,0
4346,0
4347,0
4348,0
4349,0
4350,0
4351,1
4352,0
4353,0
4354,0
4355,0
4356,0
4357,1
4358,1
4359,0
4360,0
4361,0
4362,0
4363,0
4364,0
4365,1
4366,1
4367,0
4368,0
4369,0
4370,0
4371,0
4372,1
4373,0
4374,0
4375,0
4376,1
4377,0
4378,0
4379,0
4380,0
4381,1
4382,0
4383,0
4384,1
4385,0
4386,0
4387,0
4388,0
4389,0
4390,0
4391,0
4392,1
4393,0
4394,0
4395,0
4396,0
4397,1
4398,0
4399,1
4400,0
4401,0
4402,0
4403,0
4404,0
4405,0
4406,0
4407,1
4408,0
4409,0
4410,0
4411,0
4412,0
4413,1
4414,0
4415,0
4416,0
4417,0
4418,1
4419,0
4420,0
4421,0
4422,0
4423,0
4424,0
4425,0
4426,0
4427,1
4428,0
4429,1
4430,0
4431,0
4432,0
4433,0
4434,1
4435,1
4436,1
4437,1
4438,0
4439,0
4440,0
4441,0
4442,1
4443,0
4444,0
4445,0
4446,0
4447,0
4448,0
4449,0
4450,1
4451,1
4452,0
4453,0
4454,1
4455,1
4456,0
4457,0
4458,0
4459,0
4460,1
4461,0
4462,0
4463,0
4464,1
4465,0
4466,1
4467,1
4468,1
4469,1
4470,0
4471,1
4472,0
4473,0
4474,0
4475,1
4476,0
4477,0
4478,1
4479,0
4480,0
4481,1
4482,0
4483,0
4484,0
4485,1
4486,0
4487,0
4488,0
4489,0
4490,0
4491,1
4492,0
4493,0
4494,0
4495,0
4496,0
4497,0
4498,0
4499,0
4500,0
4501,0
4502,0
4503,1
4504,1
4505,0
4506,0
4507,0
4508,0
4509,0
4510,1
4511,0
4512,0
4513,0
4514,0
4515,0
4516,0
4517,0
4518,0
4519,0
4520,0
4521,1
4522,1
4523,1
4524,0
4525,0
4526,0
4527,0
4528,1
4529,0
4530,0
4531,0
4532,0
4533,0
4534,0
4535,0
4536,0
4537,1
4538,0
4539,1
4540,1
4541,0
4542,1
4543,0
4544,0
4545,0
4546,0
4547,1
4548,0
4549,0
4550,0
4551,0
4552,0
4553,0
4554,0
4555,0
4556,0
4557,0
4558,1
4559,1
4560,0
4561,0
4562,0
4563,0
4564,1
4565,0
4566,1
4567,0
4568,0
4569,0
4570,1
4571,0
4572,0
4573,0
4574,0
4575,0
4576,1
4577,0
4578,1
4579,0
4580,0
4581,0
4582,0
4583,0
4584,0
4585,0
4586,0
4587,0
4588,0
4589,0
4590,0
4591,0
4592,1
4593,1
4594,0
4595,0
4596,1
4597,0
4598,0
4599,0
4600,0
4601,0
4602,1
4603,1
4604,1
4605,0
4606,0
4607,1
4608,1
4609,0
4610,1
4611,0
4612,0
4613,0
4614,0
4615,0
4616,0
4617,0
4618,0
4619,0
4620,0
4621,0
4622,0
4623,0
4624,0
4625,1
4626,0
4627,0
4628,0
4629,0
4630,0
4631,0
4632,0
4633,0
4634,0
4635,1
4636,0
4637,0
4638,0
4639,0
4640,0
4641,0
4642,0
4643,0
4644,0
4645,0
4646,0
4647,0
4648,1
4649,0
4650,0
4651,0
4652,0
4653,0
4654,0
4655,0
4656,1
4657,0
4658,0
4659,0
4660,1
4661,0
4662,1
4663,1
4664,0
4665,0
4666,0
4667,0
4668,0
4669,1
4670,0
4671,1
4672,0
4673,0
4674,0
4675,0
4676,1
4677,0
4678,0
4679,0
4680,0
4681,0
4682,0
4683,0
4684,0
4685,0
4686,0
4687,1
4688,1
4689,0
4690,0
4691,0
4692,0
4693,0
4694,0
4695,0
4696,0
4697,0
4698,1
4699,0
4700,0
4701,1
4702,1
4703,1
4704,0
4705,1
4706,0
4707,0
4708,1
4709,0
4710,0
4711,0
4712,0
4713,0
4714,0
4715,0
4716,0
4717,0
4718,0
4719,0
4720,0
4721,0
4722,0
4723,0
4724,0
4725,0
4726,1
4727,0
4728,0
4729,0
4730,1
4731,0
4732,0
4733,0
4734,0
4735,1
4736,0
4737,0
4738,1
4739,1
4740,0
4741,0
4742,0
4743,0
4744,0
4745,0
4746,0
4747,0
4748,0
4749,0
4750,0
4751,0
4752,0
4753,1
4754,0
4755,0
4756,0
4757,0
4758,0
4759,0
4760,0
4761,1
4762,0
4763,0
4764,0
4765,0
4766,0
4767,1
4768,0
4769,0
4770,0
4771,0
4772,0
4773,0
4774,1
4775,1
4776,0
4777,1
4778,0
4779,0
4780,0
4781,1
4782,0
4783,1
4784,0
4785,1
4786,1
4787,1
4788,0
4789,0
4790,0
4791,0
4792,0
4793,0
4794,1
4795,0
4796,1
4797,0
4798,0
4799,1
4800,0
4801,0
4802,0
4803,0
4804,1
4805,0
4806,1
4807,1
4808,0
4809,0
4810,0
4811,0
4812,0
4813,0
4814,0
4815,0
4816,0
4817,0
4818,0
4819,0
4820,0
4821,0
4822,0
4823,0
4824,0
4825,0
4826,1
4827,0
4828,0
4829,0
4830,0
4831,0
4832,0
4833,0
4834,0
4835,1
4836,0
4837,1
4838,0
4839,0
4840,0
4841,0
4842,0
4843,0
4844,1
4845,0
4846,1
4847,1
4848,0
4849,0
4850,0
4851,0
4852,0
4853,0
4854,0
4855,0
4856,1
4857,1
4858,0
4859,0
4860,0
4861,0
4862,0
4863,0
4864,0
4865,0
4866,1
4867,1
4868,1
4869,0
4870,0
4871,0
4872,0
4873,1
4874,0
4875,0
4876,0
4877,0
4878,0
4879,0
4880,0
4881,0
4882,0
4883,0
4884,0
4885,0
4886,0
4887,0
4888,0
4889,0
4890,0
4891,0
4892,0
4893,0
4894,1
4895,1
4896,0
4897,1
4898,0
4899,0
4900,0
4901,1
4902,0
4903,0
4904,0
4905,1
4906,0
4907,0
4908,0
4909,0
4910,0
4911,0
4912,0
4913,0
4914,0
4915,0
4916,0
4917,0
4918,0
4919,1
4920,0
4921,0
4922,0
4923,1
4924,0
4925,0
4926,1
4927,0
4928,0
4929,1
4930,0
4931,0
4932,0
4933,0
4934,0
4935,1
4936,1
4937,0
4938,0
4939,0
4940,1
4941,0
4942,0
4943,1
4944,1
4945,0
4946,1
4947,0
4948,0
4949,0
4950,1
4951,0
4952,0
4953,0
4954,0
4955,1
4956,0
4957,1
4958,1
4959,1
4960,1
4961,0
4962,0
4963,1
4964,0
4965,0
4966,0
4967,0
4968,0
4969,1
4970,1
4971,0
4972,1
4973,0
4974,0
4975,0
4976,0
4977,0
4978,0
4979,0
4980,0
4981,0
4982,0
4983,0
4984,0
4985,1
4986,1
4987,0
4988,0
4989,0
4990,0
4991,0
4992,0
4993,0
4994,0
4995,0
4996,1
4997,0
4998,0
4999,0
5000,0
5001,0
5002,0
5003,0
5004,0
5005,0
5006,0
5007,1
5008,0
5009,0
5010,1
5011,0
5012,0
5013,1
5014,0
5015,0
5016,1
5017,1
5018,0
5019,0
5020,1
5021,0
5022,0
5023,1
5024,1
5025,0
5026,0
5027,0
5028,0
5029,0
5030,0
5031,0
5032,0
5033,0
5034,0
5035,0
5036,0
5037,1
5038,1
5039,0
5040,0
5041,1
5042,0
5043,0
5044,0
5045,1
5046,1
5047,0
5048,0
5049,0
5050,0
5051,1
5052,1
5053,0
5054,1
5055,1
5056,0
5057,1
5058,0
5059,0
5060,0
5061,1
5062,0
5063,0
5064,0
5065,0
5066,0
5067,0
5068,1
5069,0
5070,1
5071,1
5072,1
5073,1
5074,0
5075,0
5076,0
5077,0
5078,0
5079,1
5080,0
5081,0
5082,1
5083,0
5084,0
5085,0
5086,0
5087,0
5088,0
5089,0
5090,0
5091,0
5092,0
5093,0
5094,0
5095,1
5096,0
5097,0
5098,0
5099,0
5100,0
5101,1
5102,1
5103,0
5104,0
5105,0
5106,0
5107,0
5108,1
5109,0
5110,0
5111,1
5112,0
5113,0
5114,1
5115,0
5116,0
5117,1
5118,0
5119,0
5120,0
5121,0
5122,0
5123,0
5124,0
5125,0
5126,1
5127,0
5128,0
5129,0
5130,0
5131,1
5132,0
5133,0
5134,0
5135,1
5136,0
5137,0
5138,0
5139,1
5140,0
5141,0
5142,0
5143,0
5144,0
5145,0
5146,0
5147,1
5148,1
5149,0
5150,0
5151,1
5152,1
5153,0
5154,0
5155,0
5156,0
5157,0
5158,0
5159,0
5160,0
5161,0
5162,0
5163,0
5164,0
5165,0
5166,0
5167,0
5168,0
5169,0
5170,0
5171,0
5172,0
5173,1
5174,1
5175,0
5176,0
5177,0
5178,0
5179,1
5180,0
5181,0
5182,0
5183,0
5184,0
5185,0
5186,1
5187,0
5188,0
5189,1
5190,1
5191,1
5192,0
5193,0
5194,0
5195,0
5196,0
5197,0
5198,0
5199,0
5200,0
5201,0
5202,0
5203,0
5204,0
5205,0
5206,1
5207,0
5208,0
5209,0
5210,1
5211,1
5212,0
5213,0
5214,0
5215,1
5216,0
5217,0
5218,0
5219,0
5220,0
5221,0
5222,1
5223,1
5224,1
5225,1
5226,1
5227,0
5228,1
5229,0
5230,0
5231,1
5232,0
5233,0
5234,1
5235,0
5236,0
5237,0
5238,0
5239,0
5240,1
5241,1
5242,1
5243,0
5244,0
5245,0
5246,0
5247,0
5248,0
5249,0
5250,0
5251,0
5252,0
5253,0
5254,0
5255,0
5256,0
5257,0
5258,0
5259,0
5260,0
5261,0
5262,0
5263,1
5264,0
5265,0
5266,1
5267,0
5268,0
5269,0
5270,0
5271,0
5272,0
5273,0
5274,1
5275,0
5276,0
5277,0
5278,0
5279,1
5280,0
5281,0
5282,1
5283,0
5284,0
5285,0
5286,0
5287,0
5288,1
5289,0
5290,1
5291,0
5292,0
5293,0
5294,0
5295,0
5296,0
5297,0
5298,0
5299,0
5300,0
5301,0
5302,1
5303,0
5304,1
5305,0
5306,0
5307,0
5308,0
5309,1
5310,1
5311,0
5312,0
5313,0
5314,0
5315,1
5316,0
5317,0
5318,0
5319,1
5320,0
5321,0
5322,0
5323,0
5324,0
5325,0
5326,1
5327,0
5328,0
5329,0
5330,0
5331,0
5332,0
5333,0
5334,1
5335,1
5336,0
5337,0
5338,0
5339,0
5340,1
5341,0
5342,1
5343,0
5344,0
5345,1
5346,1
5347,0
5348,0
5349,0
5350,0
5351,0
5352,0
5353,0
5354,0
5355,0
5356,0
5357,0
5358,0
5359,0
5360,0
5361,0
5362,0
5363,0
5364,1
5365,0
5366,1
5367,0
5368,1
5369,0
5370,0
5371,0
5372,0
5373,0
5374,0
5375,0
5376,0
5377,0
5378,0
5379,0
5380,1
5381,0
5382,0
5383,0
5384,0
5385,0
5386,0
5387,1
5388,0
5389,1
5390,0
5391,1
5392,1
5393,1
5394,0
5395,0
5396,0
5397,0
5398,0
5399,1
5400,1
5401,0
5402,1
5403,0
5404,1
5405,1
5406,0
5407,0
5408,0
5409,0
5410,0
5411,0
5412,0
5413,0
5414,0
5415,0
5416,0
5417,0
5418,0
5419,0
5420,0
5421,1
5422,0
5423,0
5424,0
5425,0
5426,1
5427,0
5428,0
5429,1
5430,1
5431,0
5432,1
5433,0
5434,0
5435,1
5436,1
5437,0
5438,0
5439,0
5440,0
5441,0
5442,0
5443,0
5444,0
5445,1
5446,0
5447,0
5448,0
5449,0
5450,1
5451,0
5452,0
5453,0
5454,0
5455,1
5456,0
5457,1
5458,0
5459,0
5460,0
5461,1
5462,0
5463,1
5464,1
5465,0
5466,1
5467,0
5468,0
5469,0
5470,0
5471,0
5472,0
5473,0
5474,1
5475,0
5476,0
5477,0
5478,0
5479,0
5480,0
5481,0
5482,0
5483,0
5484,0
5485,1
5486,0
5487,0
5488,0
5489,1
5490,1
5491,0
5492,0
5493,0
5494,0
5495,1
5496,1
5497,1
5498,1
5499,0
5500,0
5501,0
5502,0
5503,0
5504,0
5505,0
5506,0
5507,0
5508,0
5509,0
5510,0
5511,0
5512,0
5513,1
5514,1
5515,0
5516,0
5517,0
5518,0
5519,1
5520,1
5521,0
5522,0
5523,0
5524,0
5525,0
5526,0
5527,0
5528,0
5529,0
5530,0
5531,0
5532,0
5533,0
5534,0
5535,0
5536,1
5537,0
5538,1
5539,0
5540,0
5541,0
5542,0
5543,0
5544,0
5545,0
5546,0
5547,0
5548,1
5549,1
5550,0
5551,1
5552,1
5553,1
5554,0
5555,0
5556,0
5557,0
5558,1
5559,0
5560,0
5561,1
5562,0
5563,0
5564,0
5565,0
5566,0
5567,1
5568,0
5569,0
5570,0
5571,0
5572,0
5573,0
5574,0
5575,1
5576,0
5577,0
5578,1
5579,0
5580,0
5581,0
5582,0
5583,1
5584,1
5585,1
5586,0
5587,0
5588,0
5589,1
5590,0
5591,1
5592,0
5593,0
5594,0
5595,0
5596,0
5597,0
5598,0
5599,1
5600,0
5601,0
5602,0
5603,0
5604,0
5605,0
5606,0
5607,0
5608,0
5609,1
5610,1
5611,0
5612,0
5613,1
5614,0
5615,0
5616,0
5617,0
5618,0
5619,0
5620,0
5621,0
5622,0
5623,0
5624,0
5625,0
5626,0
5627,0
5628,0
5629,0
5630,1
5631,0
5632,0
5633,0
5634,0
5635,0
5636,0
5637,0
5638,0
5639,1
5640,1
5641,0
5642,0
5643,0
5644,1
5645,0
5646,1
5647,0
5648,0
5649,0
5650,0
5651,0
5652,0
5653,0
5654,0
5655,0
5656,0
5657,0
5658,1
5659,1
5660,0
5661,1
5662,0
5663,0
5664,1
5665,0
5666,1
5667,0
5668,1
5669,1
5670,0
5671,0
5672,0
5673,0
5674,1
5675,1
5676,0
5677,0
5678,0
5679,1
5680,0
5681,1
5682,0
5683,0
5684,0
5685,0
5686,0
5687,0
5688,0
5689,0
5690,0
5691,1
5692,0
5693,1
5694,1
5695,0
5696,0
5697,0
5698,0
5699,0
5700,0
5701,0
5702,0
5703,0
5704,0
5705,0
5706,0
5707,0
5708,0
5709,0
5710,0
5711,0
5712,0
5713,0
5714,0
5715,0
5716,0
5717,1
5718,0
5719,0
5720,0
5721,0
5722,0
5723,0
5724,0
5725,1
5726,1
5727,1
5728,0
5729,0
5730,0
5731,0
5732,0
5733,1
5734,0
5735,1
5736,0
5737,1
5738,0
5739,0
5740,1
5741,0
5742,1
5743,0
5744,0
5745,0
5746,0
5747,0
5748,0
5749,0
5750,0
5751,1
5752,0
5753,0
5754,0
5755,0
5756,0
5757,1
5758,0
5759,0
5760,1
5761,0
5762,0
5763,0
5764,0
5765,1
5766,0
5767,0
5768,0
5769,1
5770,0
5771,0
5772,0
5773,0
5774,0
5775,0
5776,0
5777,0
5778,0
5779,0
5780,0
5781,1
5782,0
5783,0
5784,1
5785,0
5786,0
5787,0
5788,1
5789,0
5790,0
5791,0
5792,0
5793,0
5794,1
5795,0
5796,0
5797,0
5798,0
5799,0
5800,0
5801,1
5802,0
5803,0
5804,0
5805,0
5806,1
5807,1
5808,0
5809,0
5810,1
5811,0
5812,0
5813,0
5814,0
5815,1
5816,0
5817,0
5818,1
5819,0
5820,1
5821,0
5822,0
5823,0
5824,0
5825,0
5826,0
5827,0
5828,1
5829,0
5830,0
5831,0
5832,0
5833,1
5834,0
5835,1
5836,0
5837,0
5838,1
5839,0
5840,0
5841,0
5842,0
5843,0
5844,0
5845,0
5846,0
5847,1
5848,1
5849,0
5850,0
5851,1
5852,1
5853,1
5854,0
5855,0
5856,0
